\relax 
\providecommand\hyper@newdestlabel[2]{}
\providecommand*\new@tpo@label[2]{}
\providecommand\HyperFirstAtBeginDocument{\AtBeginDocument}
\HyperFirstAtBeginDocument{\ifx\hyper@anchor\@undefined
\global\let\oldcontentsline\contentsline
\gdef\contentsline#1#2#3#4{\oldcontentsline{#1}{#2}{#3}}
\global\let\oldnewlabel\newlabel
\gdef\newlabel#1#2{\newlabelxx{#1}#2}
\gdef\newlabelxx#1#2#3#4#5#6{\oldnewlabel{#1}{{#2}{#3}}}
\AtEndDocument{\ifx\hyper@anchor\@undefined
\let\contentsline\oldcontentsline
\let\newlabel\oldnewlabel
\fi}
\fi}
\global\let\hyper@last\relax 
\gdef\HyperFirstAtBeginDocument#1{#1}
\providecommand\HyField@AuxAddToFields[1]{}
\providecommand\HyField@AuxAddToCoFields[2]{}
\@writefile{toc}{\contentsline {section}{\numberline {1}Introduction}{2}{section.1}}
\@writefile{toc}{\contentsline {section}{\numberline {2}Load or speed considerations}{2}{section.2}}
\@writefile{toc}{\contentsline {section}{\numberline {3}Serial nature of SERDAQ}{2}{section.3}}
\@writefile{toc}{\contentsline {section}{\numberline {4}Functionality}{2}{section.4}}
\@writefile{toc}{\contentsline {section}{\numberline {5}RDF=CSV or the reasonable data format equals CSV}{3}{section.5}}
\@writefile{toc}{\contentsline {section}{\numberline {6}Data input requirements}{3}{section.6}}
\@writefile{toc}{\contentsline {section}{\numberline {7}Configuration}{4}{section.7}}
\@writefile{toc}{\contentsline {section}{\numberline {8}How does it work}{6}{section.8}}
\@writefile{toc}{\contentsline {section}{\numberline {9}FAQ}{6}{section.9}}
\@writefile{toc}{\contentsline {section}{\numberline {10}For developers}{8}{section.10}}
